[
    {
        "id": 2,
        "description": "GET",
        "message": [],
        "objecttype": {
            "id": 5,
            "name": "clock"
        }
    },
    {
        "id": 1,
        "description": "SET",
        "message": [],
        "objecttype": {
            "id": 5,
            "name": "clock"
        }
    },
    {
        "id": 3,
        "description": "DATADELIVER",
        "message": [],
        "objecttype": {
            "id": 5,
            "name": "clock"
        }
    }
]