[{"id":1,"timestamp":"4/8/2020","temp":46.72,"device":[]},
{"id":2,"timestamp":"9/27/2019","temp":10.01,"device":[{"id":12}]},
{"id":3,"timestamp":"12/6/2019","temp":52.57,"device":[]},
{"id":4,"timestamp":"6/18/2020","temp":29.2,"device":[]},
{"id":5,"timestamp":"12/31/2019","temp":9.99,"device":[]},
{"id":6,"timestamp":"12/1/2019","temp":50.07,"device":[{"id":20}]},
{"id":7,"timestamp":"12/28/2019","temp":16.29,"device":[{"id":15}]},
{"id":8,"timestamp":"7/28/2019","temp":29.74,"device":[{"id":4}]},
{"id":9,"timestamp":"5/7/2020","temp":29.86,"device":[]},
{"id":10,"timestamp":"10/15/2019","temp":7.14,"device":[]},
{"id":11,"timestamp":"4/17/2020","temp":33.96,"device":[{"id":12}]},
{"id":12,"timestamp":"8/3/2019","temp":20.22,"device":[{"id":14}]},
{"id":13,"timestamp":"11/7/2019","temp":47.88,"device":[{"id":18}]},
{"id":14,"timestamp":"2/21/2020","temp":47.09,"device":[{"id":23}]},
{"id":15,"timestamp":"3/20/2020","temp":6.63,"device":[]},
{"id":16,"timestamp":"7/19/2020","temp":41.03,"device":[{"id":16}]},
{"id":17,"timestamp":"10/14/2019","temp":54.41,"device":[]},
{"id":18,"timestamp":"11/27/2019","temp":55.37,"device":[]},
{"id":19,"timestamp":"4/2/2020","temp":35.29,"device":[{"id":25}]},
{"id":20,"timestamp":"10/26/2019","temp":4.51,"device":[{"id":1}]},
{"id":21,"timestamp":"11/19/2019","temp":14.13,"device":[]},
{"id":22,"timestamp":"8/7/2019","temp":48.36,"device":[{"id":12}]},
{"id":23,"timestamp":"10/20/2019","temp":18.36,"device":[{"id":4}]},
{"id":24,"timestamp":"11/28/2019","temp":44.53,"device":[{"id":19}]},
{"id":25,"timestamp":"10/27/2019","temp":14.48,"device":[{"id":10}]},
{"id":26,"timestamp":"11/24/2019","temp":36.96,"device":[]},
{"id":27,"timestamp":"12/16/2019","temp":26.57,"device":[{"id":17}]},
{"id":28,"timestamp":"1/2/2020","temp":1.74,"device":[]},
{"id":29,"timestamp":"3/21/2020","temp":9.67,"device":[{"id":7}]},
{"id":30,"timestamp":"8/19/2019","temp":3.59,"device":[]},
{"id":31,"timestamp":"3/1/2020","temp":30.39,"device":[{"id":25}]},
{"id":32,"timestamp":"7/7/2020","temp":6.37,"device":[{"id":20}]},
{"id":33,"timestamp":"8/7/2019","temp":22.95,"device":[]},
{"id":34,"timestamp":"10/2/2019","temp":24.91,"device":[{"id":15}]},
{"id":35,"timestamp":"4/18/2020","temp":44.6,"device":[]},
{"id":36,"timestamp":"12/4/2019","temp":46.94,"device":[{"id":14}]},
{"id":37,"timestamp":"3/16/2020","temp":14.07,"device":[{"id":7}]},
{"id":38,"timestamp":"8/29/2019","temp":17.1,"device":[{"id":9}]},
{"id":39,"timestamp":"6/13/2020","temp":11.79,"device":[]},
{"id":40,"timestamp":"11/23/2019","temp":35.94,"device":[]},
{"id":41,"timestamp":"12/17/2019","temp":6.03,"device":[{"id":19}]},
{"id":42,"timestamp":"5/27/2020","temp":6.28,"device":[]},
{"id":43,"timestamp":"6/5/2020","temp":56.91,"device":[]},
{"id":44,"timestamp":"6/12/2020","temp":50.17,"device":[{"id":6}]},
{"id":45,"timestamp":"12/18/2019","temp":32.34,"device":[]},
{"id":46,"timestamp":"10/14/2019","temp":55.81,"device":[{"id":25}]},
{"id":47,"timestamp":"9/8/2019","temp":18.08,"device":[]},
{"id":48,"timestamp":"12/22/2019","temp":26.67,"device":[]},
{"id":49,"timestamp":"4/29/2020","temp":44.67,"device":[]},
{"id":50,"timestamp":"11/14/2019","temp":10.11,"device":[]},
{"id":51,"timestamp":"7/21/2020","temp":17.41,"device":[]},
{"id":52,"timestamp":"11/10/2019","temp":35.31,"device":[]},
{"id":53,"timestamp":"8/18/2019","temp":21.6,"device":[]},
{"id":54,"timestamp":"10/1/2019","temp":1.46,"device":[]},
{"id":55,"timestamp":"7/24/2020","temp":30.4,"device":[{"id":18}]},
{"id":56,"timestamp":"4/3/2020","temp":47.32,"device":[]},
{"id":57,"timestamp":"3/18/2020","temp":49.48,"device":[{"id":10}]},
{"id":58,"timestamp":"12/6/2019","temp":30.44,"device":[{"id":9}]},
{"id":59,"timestamp":"1/7/2020","temp":30.17,"device":[]},
{"id":60,"timestamp":"2/20/2020","temp":47.45,"device":[]},
{"id":61,"timestamp":"8/14/2019","temp":39.28,"device":[{"id":4}]},
{"id":62,"timestamp":"9/2/2019","temp":13.85,"device":[]},
{"id":63,"timestamp":"4/22/2020","temp":23.27,"device":[]},
{"id":64,"timestamp":"10/25/2019","temp":56.52,"device":[{"id":23}]},
{"id":65,"timestamp":"10/5/2019","temp":41.94,"device":[]},
{"id":66,"timestamp":"11/26/2019","temp":27.96,"device":[{"id":9}]},
{"id":67,"timestamp":"5/23/2020","temp":55.19,"device":[{"id":19}]},
{"id":68,"timestamp":"8/17/2019","temp":41.82,"device":[]},
{"id":69,"timestamp":"9/3/2019","temp":5.08,"device":[{"id":23}]},
{"id":70,"timestamp":"7/29/2019","temp":26.49,"device":[{"id":2}]},
{"id":71,"timestamp":"4/25/2020","temp":15.69,"device":[]},
{"id":72,"timestamp":"4/20/2020","temp":40.46,"device":[{"id":9}]},
{"id":73,"timestamp":"12/13/2019","temp":27.2,"device":[{"id":3}]},
{"id":74,"timestamp":"4/17/2020","temp":41.42,"device":[]},
{"id":75,"timestamp":"8/3/2019","temp":38.76,"device":[{"id":4}]},
{"id":76,"timestamp":"7/28/2019","temp":3.9,"device":[{"id":24}]},
{"id":77,"timestamp":"11/24/2019","temp":21.13,"device":[{"id":8}]},
{"id":78,"timestamp":"4/16/2020","temp":20.02,"device":[]},
{"id":79,"timestamp":"8/16/2019","temp":37.93,"device":[]},
{"id":80,"timestamp":"4/7/2020","temp":26.87,"device":[]},
{"id":81,"timestamp":"9/30/2019","temp":58.1,"device":[{"id":3}]},
{"id":82,"timestamp":"4/4/2020","temp":17.07,"device":[]},
{"id":83,"timestamp":"4/23/2020","temp":20.95,"device":[]},
{"id":84,"timestamp":"2/12/2020","temp":6.93,"device":[{"id":3}]},
{"id":85,"timestamp":"9/22/2019","temp":23.04,"device":[]},
{"id":86,"timestamp":"8/9/2019","temp":49.4,"device":[]},
{"id":87,"timestamp":"1/20/2020","temp":13.06,"device":[{"id":7}]},
{"id":88,"timestamp":"8/18/2019","temp":10.19,"device":[{"id":24}]},
{"id":89,"timestamp":"7/26/2020","temp":51.82,"device":[]},
{"id":90,"timestamp":"12/25/2019","temp":13.95,"device":[{"id":20}]},
{"id":91,"timestamp":"5/30/2020","temp":46.18,"device":[]},
{"id":92,"timestamp":"8/30/2019","temp":19.04,"device":[]},
{"id":93,"timestamp":"11/8/2019","temp":9.93,"device":[]},
{"id":94,"timestamp":"11/26/2019","temp":25.52,"device":[]},
{"id":95,"timestamp":"9/3/2019","temp":34.56,"device":[{"id":17}]},
{"id":96,"timestamp":"4/21/2020","temp":54.23,"device":[{"id":23}]},
{"id":97,"timestamp":"2/10/2020","temp":3.31,"device":[{"id":14}]},
{"id":98,"timestamp":"7/24/2020","temp":55.27,"device":[{"id":22}]},
{"id":99,"timestamp":"8/21/2019","temp":52.61,"device":[{"id":20}]},
{"id":100,"timestamp":"4/5/2020","temp":8.42,"device":[]}]